systemc/gate_nand/waves.vcd
$date
     Feb 16, 2025       12:38:17
$end

$version
 SystemC 2.3.3-Accellera --- Jun  7 2022 13:10:00
$end

$timescale
     1 ns
$end

$scope module SystemC $end
$var wire    1  aaaaa  clk       $end
$var wire    1  aaaab  in1       $end
$var wire    1  aaaac  in2       $end
$var wire    1  aaaad  out1       $end
$upscope $end
$enddefinitions  $end

$comment
All initial values are dumped below at time 0 sec = 0 timescale units.
$end

$dumpvars
0aaaaa
0aaaab
0aaaac
0aaaad
$end

#10
1aaaaa
1aaaab
1aaaad

#15
0aaaaa

#20
1aaaaa
1aaaac
0aaaad

#25
0aaaaa

#30
1aaaaa
0aaaab
1aaaad

#31
0aaaac

#35
0aaaaa

#40
1aaaaa
1aaaab
1aaaac
0aaaad

#45
0aaaaa

#50
1aaaaa
0aaaac
1aaaad

#55
0aaaaa

#60
1aaaaa
0aaaab

#65
0aaaaa

#70
1aaaaa
1aaaab

#75
0aaaaa

#80
1aaaaa
1aaaac
0aaaad

#85
0aaaaa

#90
1aaaaa
0aaaab
1aaaad

#91
0aaaac

#95
0aaaaa

#100
1aaaaa
1aaaab
1aaaac
0aaaad

#105
0aaaaa

#110
1aaaaa
0aaaac
1aaaad

#115
0aaaaa

#120
1aaaaa
0aaaab

#125
0aaaaa

#130
1aaaaa
1aaaab

#135
0aaaaa

#140
1aaaaa
1aaaac
0aaaad

#145
0aaaaa

#150
1aaaaa
0aaaab
1aaaad

#151
0aaaac

#155
0aaaaa

#160
1aaaaa
1aaaab
1aaaac
0aaaad

#165
0aaaaa

#170
1aaaaa
0aaaac
1aaaad

#175
0aaaaa

#180
1aaaaa
0aaaab

#185
0aaaaa

#190
1aaaaa
1aaaab

#195
0aaaaa

#200
1aaaaa
1aaaac
0aaaad

#205
0aaaaa

#210
1aaaaa
0aaaab
1aaaad

#211
0aaaac

#215
0aaaaa

#220
1aaaaa
1aaaab
1aaaac
0aaaad

#225
0aaaaa

#230
1aaaaa
0aaaac
1aaaad

#235
0aaaaa

#240
1aaaaa
0aaaab

#245
0aaaaa

#250
1aaaaa
1aaaab

#255
0aaaaa

#260
1aaaaa
1aaaac
0aaaad

#265
0aaaaa

#270
1aaaaa
0aaaab
1aaaad

#271
0aaaac

#275
0aaaaa

#280
1aaaaa
1aaaab
1aaaac
0aaaad

#285
0aaaaa

#290
1aaaaa
0aaaac
1aaaad

#295
0aaaaa

#300
1aaaaa
0aaaab

#305
0aaaaa

#310
1aaaaa
1aaaab

#315
0aaaaa

#320
1aaaaa
1aaaac
0aaaad

#325
0aaaaa

#330
1aaaaa
0aaaab
1aaaad

#331
0aaaac

#335
0aaaaa

#340
1aaaaa
1aaaab
1aaaac
0aaaad

#345
0aaaaa

#350
1aaaaa
0aaaac
1aaaad

#355
0aaaaa

#360
1aaaaa
0aaaab

#365
0aaaaa

#370
1aaaaa
1aaaab

#375
0aaaaa

#380
1aaaaa
1aaaac
0aaaad

#385
0aaaaa

#390
1aaaaa
0aaaab
1aaaad

#391
0aaaac

#395
0aaaaa

#400
1aaaaa
1aaaab
1aaaac
0aaaad

#405
0aaaaa

#410
1aaaaa
0aaaac
1aaaad

#415
0aaaaa

#420
1aaaaa
0aaaab

#425
0aaaaa

#430
1aaaaa
1aaaab

#435
0aaaaa

#440
1aaaaa
1aaaac
0aaaad

#445
0aaaaa

#450
1aaaaa
0aaaab
1aaaad

#451
0aaaac

#455
0aaaaa

#460
1aaaaa
1aaaab
1aaaac
0aaaad

#465
0aaaaa

#470
1aaaaa
0aaaac
1aaaad

#475
0aaaaa

#480
1aaaaa
0aaaab

#485
0aaaaa

#490
1aaaaa
1aaaab

